{
  "success": true,
  "message": "Users retrieved.",
  "data": [
    {
      "id": "11111111-1111-1111-1111-111111111111",
      "name": "Admin User",
      "email": "admin@mock.com",
      "phone": "+6281234567890",
      "avatar_url": "https://api.dicebear.com/7.x/avataaars/svg?seed=admin",
      "role": "admin",
      "is_active": 1,
      "created_at": "2025-06-01T09:32:39.846Z",
      "updated_at": "2025-06-01T09:32:39.846Z"
    },
    {
      "id": "22222222-2222-2222-2222-222222222222",
      "name": "Test User",
      "email": "user@mock.com",
      "phone": "+6281234567891",
      "avatar_url": "https://api.dicebear.com/7.x/avataaars/svg?seed=user",
      "role": "user",
      "is_active": 1,
      "created_at": "2025-06-01T09:32:39.846Z",
      "updated_at": "2025-06-01T09:32:39.846Z"
    }
  ],
  "meta": {
    "page": 1,
    "limit": 20,
    "total": 32,
    "total_pages": 2,
    "has_next": true,
    "has_prev": false
  }
}
